…
# calibrate() warns when linear calibration produces negative weights

    Code
      calibrate(df, variables = c(age_group, sex), population = pop, method = "linear")
    Condition
      Warning:
      ! Linear calibration produced 36 negative calibrated weight(s).
      i Negative weights can cause invalid variance estimates.
      i Consider `method = "logit"` for bounded weights, or review population totals.
    Output
      # A tibble: 100 x 7
            id age_group sex   education region    base_weight  .weight
       * <int> <chr>     <chr> <chr>     <chr>           <dbl>    <dbl>
       1     1 35-54     M     Graduate  Midwest         0.634 -0.00434
       2     2 35-54     F     <HS       South           0.692  0.00365
       3     3 55+       F     Graduate  South           2.02   0.00454
       4     4 18-34     M     Graduate  Midwest         1.12   0.0356 
       5     5 35-54     M     HS        Northeast       1.74  -0.00434
       6     6 18-34     M     College   South           0.573  0.0356 
       7     7 35-54     F     College   Midwest         0.917  0.00365
       8     8 18-34     M     College   South           1.87   0.0356 
       9     9 55+       F     College   South           0.920  0.00454
      10    10 18-34     M     Graduate  West            1.75   0.0356 
      # i 90 more rows
