…
# rake() warns when anesrake-specific control param set with method='survey'

    Code
      rake(df, margins = margins, method = "survey", control = list(pval = 0.01))
    Condition
      Warning:
      ! `control$pval` is not used when `method = "survey"` and will be ignored.
      i For `method = "anesrake"`, valid `control` keys are: `maxit`, `improvement`, `pval`, `min_cell_n`, `variable_select`.
      i For `method = "survey"`, valid `control` keys are: `maxit`, `epsilon`.
    Output
      # A tibble: 500 x 7
            id age_group sex   education region    base_weight .weight
       * <int> <chr>     <chr> <chr>     <chr>           <dbl>   <dbl>
       1     1 35-54     F     HS        South           2.55  0.00204
       2     2 18-34     F     Graduate  South           0.395 0.00171
       3     3 55+       F     HS        Northeast       1.20  0.00200
       4     4 35-54     M     HS        West            0.680 0.00224
       5     5 18-34     F     Graduate  South           0.793 0.00171
       6     6 18-34     M     HS        Midwest         0.554 0.00187
       7     7 18-34     F     HS        South           0.717 0.00171
       8     8 55+       M     Graduate  South           1.11  0.00219
       9     9 18-34     M     HS        South           0.647 0.00187
      10    10 55+       M     College   South           1.22  0.00219
      # i 490 more rows

# rake() warns when survey-specific control param set with method='anesrake'

    Code
      rake(df, margins = margins, method = "anesrake", control = list(epsilon = 1e-05))
    Condition
      Warning:
      ! `control$epsilon` is not used when `method = "anesrake"` and will be ignored.
      i For `method = "anesrake"`, valid `control` keys are: `maxit`, `improvement`, `pval`, `min_cell_n`, `variable_select`.
      i For `method = "survey"`, valid `control` keys are: `maxit`, `epsilon`.
    Message
      i Raking converged in 1 sweep: all variables already met their margins. Weights were not adjusted.
    Output
      # A tibble: 500 x 7
            id age_group sex   education region    base_weight .weight
       * <int> <chr>     <chr> <chr>     <chr>           <dbl>   <dbl>
       1     1 18-34     F     Graduate  South           2.53    0.002
       2     2 18-34     F     College   Northeast       1.23    0.002
       3     3 35-54     F     Graduate  South           1.47    0.002
       4     4 18-34     M     HS        Northeast       1.16    0.002
       5     5 55+       F     HS        Midwest         0.671   0.002
       6     6 55+       M     College   West            0.787   0.002
       7     7 18-34     M     HS        Midwest         1.07    0.002
       8     8 35-54     F     Graduate  South           0.310   0.002
       9     9 55+       M     College   South           0.712   0.002
      10    10 18-34     F     Graduate  Midwest         1.38    0.002
      # i 490 more rows
