…
# adjust_nonresponse() warns when a cell has fewer than 20 respondents

    Code
      adjust_nonresponse(df_small, response_status = responded, weights = w, by = class)
    Condition
      Warning:
      ! Weighting class cell "small" is sparse (5 respondent(s), adjustment factor 1.40×).
      i Small or high-adjustment cells may produce extreme weights.
      i Consider collapsing weighting classes or adjusting `control$min_cell` / `control$max_adjust`.
    Output
      # A tibble: 85 x 3
         class responded     w
       * <chr>     <int> <dbl>
       1 small         1  1.4 
       2 small         1  1.4 
       3 small         1  1.4 
       4 small         1  1.4 
       5 small         1  1.4 
       6 big           1  1.25
       7 big           1  1.25
       8 big           1  1.25
       9 big           1  1.25
      10 big           1  1.25
      # i 75 more rows
…
